{
    "cols": [
      {
        "key": "March 15",
        "label":"March 15"
      },
      {
        "key": "age",
        "label":"Age"
      },
      {
        "key": "hours",
        "label":"Hours Label"
      }
    ],
    "rows": [{
            "id": 1,
            "March 15": "Benoit",
            "age": "32",
            "hours": "0.5"
        },
        {
          "id": 2,
            "March 15": "Sarah",
            "age": "32",
            "hours": "0"
        },
        {
          "id": 3,
            "March 15": "Matt",
            "age": "32",
            "hours": "0"
        },
        {
          "id": 4,
            "March 15": "Vincent",
            "age": "26",
            "hours": "0"
        },
        {
          "id": 5,
            "March 15": "Sissi",
            "age": "30",
            "hours": "0"
        },
        {
          "id": 6,
            "March 15": "Cruz",
            "age": "36",
            "hours": "0"
        },
        {
          "id": 7,
            "March 15": "Leila",
            "age": "31",
            "hours": "0"
        },
        {
          "id": 8,
            "March 15": "Jay",
            "age": "33",
            "hours": "0"
        }
    ]
}
